\relax 
\@writefile{toc}{\contentsline {section}{\numberline {1}Introduction}{1}}
\@writefile{toc}{\contentsline {section}{\numberline {2}Problem formulation}{2}}
\@writefile{toc}{\contentsline {section}{\numberline {3}Algorithm design}{2}}
\@writefile{toc}{\contentsline {subsection}{\numberline {3.1}Overall structure}{2}}
\citation{Ablamowicz07}
\bibstyle{ACM-Reference-Format-Journals}
\bibdata{acmsmall-sample-bibfile}
\bibcite{Ablamowicz07}{\citeauthoryear {Ablamowicz and Fauser}{Ablamowicz and Fauser}{2007}}
\lastpage{3}
\@writefile{toc}{\contentsline {subsection}{\numberline {3.2}Optimization}{3}}
\@writefile{toc}{\contentsline {subsection}{\numberline {3.3}Clustering}{3}}
\@writefile{toc}{\contentsline {section}{\numberline {4}Implementation}{3}}
\@writefile{toc}{\contentsline {section}{\numberline {5}Empirical Analysis}{3}}
\@writefile{toc}{\contentsline {subsection}{\numberline {5.1}Set Up}{3}}
\@writefile{toc}{\contentsline {subsection}{\numberline {5.2}Users Related Feedback}{3}}
\@writefile{toc}{\contentsline {subsection}{\numberline {5.3}System Related Feedback}{3}}
\@writefile{toc}{\contentsline {subsection}{\numberline {5.4}Clustering Effects}{3}}
\@writefile{toc}{\contentsline {section}{\numberline {6}Related Work}{3}}
\@writefile{toc}{\contentsline {section}{\numberline {7}Conclusions}{3}}
