\relax 
\@writefile{toc}{\contentsline {section}{\numberline {1}Introduction}{1}}
\@writefile{toc}{\contentsline {section}{\numberline {2}Problem formulation}{2}}
\newlabel{sec: problem formulation}{{2}{2}}
\@writefile{toc}{\contentsline {section}{\numberline {3}Algorithm design}{4}}
\citation{Bachrach2009}
\citation{Zick2013}
\@writefile{toc}{\contentsline {subsection}{\numberline {3.1}Overall structure}{5}}
\@writefile{toc}{\contentsline {subsection}{\numberline {3.2}Optimization}{5}}
\newlabel{sec:optimization}{{3.2}{5}}
\citation{Andreadis2016}
\citation{Andreadis2016}
\citation{akash16}
\citation{Ghosh2016}
\@writefile{toc}{\contentsline {subsection}{\numberline {3.3}Clustering}{6}}
\citation{CAS2016}
\newlabel{eq:model}{{1}{7}}
\@writefile{toc}{\contentsline {section}{\numberline {4}Implementation}{7}}
\@writefile{toc}{\contentsline {section}{\numberline {5}Empirical Analysis}{7}}
\@writefile{toc}{\contentsline {subsection}{\numberline {5.1}Set Up}{7}}
\citation{Agatz2011}
\citation{Agatz2011,Ghoseiri2011}
\citation{Ghoseiri2011}
\citation{Xing2009,Kleiner2011,Herbawi2011}
\citation{Furuhata2013,Agatz2012}
\citation{Kamar2009,Zhao2014,Cheng2014}
\citation{Kleiner2011}
\citation{Nourinejad2016}
\citation{JieZhang2016}
\citation{Zhao2015,Zhao2016}
\@writefile{toc}{\contentsline {subsection}{\numberline {5.2}Performance of the Optimizer}{8}}
\@writefile{toc}{\contentsline {subsection}{\numberline {5.3}Feedback Effect}{8}}
\@writefile{toc}{\contentsline {subsection}{\numberline {5.4}Clustering Effects}{8}}
\@writefile{toc}{\contentsline {section}{\numberline {6}Related Work}{8}}
\citation{Bistaffa2015AAAI}
\citation{Bistaffa2015RecSys}
\citation{Stiglic2015}
\citation{Aivodji2016}
\citation{Stiglic2016}
\citation{Yeung2016}
\citation{Xu2015}
\citation{DAndrea2016}
\citation{Shen2016}
\citation{Ghosh2016}
\bibstyle{ACM-Reference-Format-Journals}
\bibdata{TIST}
\bibcite{Agatz2012}{\citeauthoryear {Agatz, Erera, Savelsbergh, and Wang}{Agatz et\nobreakspace  {}al\unhbox \voidb@x \hbox {.}}{2012}}
\bibcite{Agatz2011}{\citeauthoryear {Agatz, Erera, Savelsbergh, and Wang}{Agatz et\nobreakspace  {}al\unhbox \voidb@x \hbox {.}}{2011}}
\bibcite{Andreadis2016}{\citeauthoryear {Andreadis, Ceppi, Rovatsos, and Ramamoorthy}{Andreadis et\nobreakspace  {}al\unhbox \voidb@x \hbox {.}}{2016}}
\@writefile{toc}{\contentsline {section}{\numberline {7}Conclusions}{9}}
\bibcite{Aivodji2016}{\citeauthoryear {Aïvodji, Gambs, Huguet, and Killijian}{Aïvodji et\nobreakspace  {}al\unhbox \voidb@x \hbox {.}}{2016}}
\bibcite{Bachrach2009}{\citeauthoryear {Bachrach, Elkind, Meir, Pasechnik, Zuckerman, Rothe, and Rosenschein}{Bachrach et\nobreakspace  {}al\unhbox \voidb@x \hbox {.}}{2009}}
\bibcite{Bistaffa2015RecSys}{\citeauthoryear {Bistaffa, Farinelli, Chalkiadakis, and Ramchurn}{Bistaffa et\nobreakspace  {}al\unhbox \voidb@x \hbox {.}}{2015b}}
\bibcite{Bistaffa2015AAAI}{\citeauthoryear {Bistaffa, Farinelli, and Ramchurn}{Bistaffa et\nobreakspace  {}al\unhbox \voidb@x \hbox {.}}{2015a}}
\bibcite{DAndrea2016}{\citeauthoryear {D'Andrea, Lorenzo, Lazzerini, Marcelloni, and Schoen}{D'Andrea et\nobreakspace  {}al\unhbox \voidb@x \hbox {.}}{2016}}
\bibcite{Furuhata2013}{\citeauthoryear {Furuhata, Dessouky, Ordonez, Brunet, Wang, and Koenig}{Furuhata et\nobreakspace  {}al\unhbox \voidb@x \hbox {.}}{2013}}
\bibcite{Ghoseiri2011}{\citeauthoryear {Ghoseiri, Haghani, Hamedi, Center, of\nobreakspace  {}Transportation, of\nobreakspace  {}Transportation.\nobreakspace  {}Research, and Administration}{Ghoseiri et\nobreakspace  {}al\unhbox \voidb@x \hbox {.}}{2011}}
\bibcite{Ghosh2016}{\citeauthoryear {Ghosh}{Ghosh}{2016}}
\bibcite{Herbawi2011}{\citeauthoryear {Herbawi and Weber}{Herbawi and Weber}{2011}}
\bibcite{Kleiner2011}{\citeauthoryear {Kleiner, Nebel, and Ziparo}{Kleiner et\nobreakspace  {}al\unhbox \voidb@x \hbox {.}}{2011}}
\bibcite{Nourinejad2016}{\citeauthoryear {Nourinejad and Roorda}{Nourinejad and Roorda}{2016}}
\bibcite{Shen2016}{\citeauthoryear {Shen, Lopes, and Crandall}{Shen et\nobreakspace  {}al\unhbox \voidb@x \hbox {.}}{2016}}
\bibcite{akash16}{\citeauthoryear {Srivastava, Zou, Adams, and Sutton}{Srivastava et\nobreakspace  {}al\unhbox \voidb@x \hbox {.}}{2016}}
\bibcite{Stiglic2015}{\citeauthoryear {Stiglic, Agatz, Savelsbergh, and Gradisar}{Stiglic et\nobreakspace  {}al\unhbox \voidb@x \hbox {.}}{2015}}
\bibcite{Stiglic2016}{\citeauthoryear {Stiglic, Agatz, Savelsbergh, and Gradisar}{Stiglic et\nobreakspace  {}al\unhbox \voidb@x \hbox {.}}{2016}}
\bibcite{Xing2009}{\citeauthoryear {Xing, Warden, Nicolai, and Herzog}{Xing et\nobreakspace  {}al\unhbox \voidb@x \hbox {.}}{2009}}
\bibcite{Xu2015}{\citeauthoryear {Xu, Pang, Ordóñez, and Dessouky}{Xu et\nobreakspace  {}al\unhbox \voidb@x \hbox {.}}{2015}}
\bibcite{Yeung2016}{\citeauthoryear {Yeung, Miller, and Madria}{Yeung et\nobreakspace  {}al\unhbox \voidb@x \hbox {.}}{2016}}
\bibcite{JieZhang2016}{\citeauthoryear {Zhang, Wen, and Zeng}{Zhang et\nobreakspace  {}al\unhbox \voidb@x \hbox {.}}{2016}}
\bibcite{Zhao2015}{\citeauthoryear {Zhao, Ramchurn, and Jennings}{Zhao et\nobreakspace  {}al\unhbox \voidb@x \hbox {.}}{2015}}
\bibcite{Zhao2016}{\citeauthoryear {Zhao, Ramchurn, and Jennings}{Zhao et\nobreakspace  {}al\unhbox \voidb@x \hbox {.}}{2016}}
\bibcite{Zick2013}{\citeauthoryear {Zick, Polukarov, and Jennings}{Zick et\nobreakspace  {}al\unhbox \voidb@x \hbox {.}}{2013}}
\lastpage{11}
